…
``` r
scoring = scorequaltrics::get_rubrics(scoring_rubrics, type = 'scoring')
```

### Score the questionnaires

``` r
scored = scorequaltrics::score_questionnaire(surveys_long_clean, scoring, SID = "SID", psych = FALSE)

# print first 200 rows
head(scored, 200)
```

    ## # A tibble: 200 x 8
    ## # Groups:   survey_name, scale_name, scored_scale [6]
    ##    survey_name    scale_name scored_scale SID   score   n_items n_missing method
    ##    <chr>          <chr>      <chr>        <chr> <I<chr>   <int>     <int> <chr> 
    ##  1 Freshman Proj… CVS        ethnicity_t… FP001 caucas…       1         0 I     
    ##  2 Freshman Proj… CVS        ethnicity_t… FP002 hispan…       1         0 I     
    ##  3 Freshman Proj… CVS        ethnicity_t… FP003 caucas…       1         0 I     
    ##  4 Freshman Proj… CVS        ethnicity_t… FP004 Caucas…       1         0 I     
    ##  5 Freshman Proj… CVS        ethnicity_t… FP005 white         1         0 I     
    ##  6 Freshman Proj… CVS        ethnicity_t… FP006 White         1         0 I     
    ##  7 Freshman Proj… CVS        ethnicity_t… FP007 Caucas…       1         0 I     
    ##  8 Freshman Proj… CVS        ethnicity_t… FP008 White         1         0 I     
    ##  9 Freshman Proj… CVS        ethnicity_t… FP009 white         1         0 I     
    ## 10 Freshman Proj… CVS        ethnicity_t… FP010 White         1         0 I     
    ## # … with 190 more rows
…
